{"count":141,"next":"https://lldev.thespacedevs.com/2.2.0/launcher/?limit=20&offset=20","previous":null,"results":[{"id":1,"url":"https://lldev.thespacedevs.com/2.2.0/launcher/1/","flight_proven":true,"serial_number":"B1050","is_placeholder":false,"status":"retired","details":"Towed to Port of Canaveral; cannibalized for parts to build Starhopper.","launcher_config":{"id":164,"url":"https://lldev.thespacedevs.com/2.2.0/config/launcher/164/","name":"Falcon 9","family":"Falcon","full_name":"Falcon 9 Block 5","variant":"Block 5"},"image_url":"https://spacelaunchnow-prod-east.nyc3.digitaloceanspaces.com/media/launcher_core_images/1_image_20230201124850.jpg","flights":1,"last_launch_date":"2018-12-05T18:16:16Z","first_launch_date":"2018-12-05T18:16:16Z"},{"id":2,"url":"https://lldev.thespacedevs.com/2.2.0/launcher/2/","flight_proven":true,"serial_number":"B1051","is_placeholder":false,"status":"expended","details":"Stage Expended","launcher_config":{"id":164,"url":"https://lldev.thespacedevs.com/2.2.0/config/launcher/164/","name":"Falcon 9","family":"Falcon","full_name":"Falcon 9 Block 5","variant":"Block 5"},"image_url":"https://spacelaunchnow-prod-east.nyc3.digitaloceanspaces.com/media/launcher_core_images/2_image_20200211104751.jpeg","flights":14,"last_launch_date":"2022-11-12T16:06:00Z","first_launch_date":"2019-03-02T07:49:00Z"},{"id":3,"url":"https://lldev.thespacedevs.com/2.2.0/launcher/3/","flight_proven":true,"serial_number":"F1 B0001","is_placeholder":false,"status":"lost","details":"Engine failure at T+33 seconds resulted in loss of vehicle","launcher_config":{"id":133,"url":"https://lldev.thespacedevs.com/2.2.0/config/launcher/133/","name":"Falcon 1","family":"Falcon","full_name":"Falcon 1","variant":"1"},"image_url":"https://spacelaunchnow-prod-east.nyc3.digitaloceanspaces.com/media/launcher_core_images/3_image_20230707185714.jpg","flights":1,"last_launch_date":"2006-03-24T22:30:00Z","first_launch_date":"2006-03-24T22:30:00Z"},{"id":4,"url":"https://lldev.thespacedevs.com/2.2.0/launcher/4/","flight_proven":true,"serial_number":"F1 B0002","is_placeholder":false,"status":"lost","details":"Successful first-stage burn and transition to second stage, maximal altitude 289 km. Harmonic oscillation at T+5 minutes Premature engine shutdown at T+7 min 30 s. Failed to reach orbit.","launcher_config":{"id":133,"url":"https://lldev.thespacedevs.com/2.2.0/config/launcher/133/","name":"Falcon 1","family":"Falcon","full_name":"Falcon 1","variant":"1"},"image_url":"https://spacelaunchnow-prod-east.nyc3.digitaloceanspaces.com/media/launcher_core_images/4_image_20230707185728.jpg","flights":1,"last_launch_date":"2007-03-21T01:10:00Z","first_launch_date":"2007-03-21T01:10:00Z"},{"id":5,"url":"https://lldev.thespacedevs.com/2.2.0/launcher/5/","flight_proven":true,"serial_number":"F1 B0003","is_placeholder":false,"status":"lost","details":"Residual stage-1 thrust led to collision between stage 1 and stage 2.","launcher_config":{"id":133,"url":"https://lldev.thespacedevs.com/2.2.0/config/launcher/133/","name":"Falcon 1","family":"Falcon","full_name":"Falcon 1","variant":"1"},"image_url":"https://spacelaunchnow-prod-east.nyc3.digitaloceanspaces.com/media/launcher_core_images/5_image_20230707190424.jpg","flights":1,"last_launch_date":"2008-08-03T03:34:00Z","first_launch_date":"2008-08-03T03:34:00Z"},{"id":6,"url":"https://lldev.thespacedevs.com/2.2.0/launcher/6/","flight_proven":true,"serial_number":"F1 B0004","is_placeholder":false,"status":"lost","details":"Initially scheduled for 23–25 Sep, carried dummy payload – mass simulator, 165 kg (originally intended to be RazakSAT.","launcher_config":{"id":133,"url":"https://lldev.thespacedevs.com/2.2.0/config/launcher/133/","name":"Falcon 1","family":"Falcon","full_name":"Falcon 1","variant":"1"},"image_url":"https://spacelaunchnow-prod-east.nyc3.digitaloceanspaces.com/media/launcher_core_images/6_image_20230707190325.jpg","flights":1,"last_launch_date":"2008-09-28T23:15:00Z","first_launch_date":"2008-09-28T23:15:00Z"},{"id":7,"url":"https://lldev.thespacedevs.com/2.2.0/launcher/7/","flight_proven":true,"serial_number":"F1 B0005","is_placeholder":false,"status":"lost","details":"Booster expended during the second successful flight of Falcon 1.","launcher_config":{"id":133,"url":"https://lldev.thespacedevs.com/2.2.0/config/launcher/133/","name":"Falcon 1","family":"Falcon","full_name":"Falcon 1","variant":"1"},"image_url":"https://spacelaunchnow-prod-east.nyc3.digitaloceanspaces.com/media/launcher_core_images/7_image_20230707190228.jpg","flights":1,"last_launch_date":"2009-07-14T03:35:00Z","first_launch_date":"2009-07-14T03:35:00Z"},{"id":8,"url":"https://lldev.thespacedevs.com/2.2.0/launcher/8/","flight_proven":true,"serial_number":"B0003","is_placeholder":false,"status":"expended","details":"Stage Expended","launcher_config":{"id":169,"url":"https://lldev.thespacedevs.com/2.2.0/config/launcher/169/","name":"Falcon 9","family":"Falcon","full_name":"Falcon 9 v1.0","variant":"v1.0"},"image_url":"https://spacelaunchnow-prod-east.nyc3.digitaloceanspaces.com/media/launcher_core_images/8_image_20191115082425.jpg","flights":1,"last_launch_date":"2010-06-04T18:45:00Z","first_launch_date":"2010-06-04T18:45:00Z"},{"id":9,"url":"https://lldev.thespacedevs.com/2.2.0/launcher/9/","flight_proven":true,"serial_number":"B0004","is_placeholder":false,"status":"lost","details":"First flight of Dragon","launcher_config":{"id":169,"url":"https://lldev.thespacedevs.com/2.2.0/config/launcher/169/","name":"Falcon 9","family":"Falcon","full_name":"Falcon 9 v1.0","variant":"v1.0"},"image_url":"https://spacelaunchnow-prod-east.nyc3.digitaloceanspaces.com/media/launcher_core_images/9_image_20191115082500.jpg","flights":1,"last_launch_date":"2010-12-08T15:43:00Z","first_launch_date":"2010-12-08T15:43:00Z"},{"id":10,"url":"https://lldev.thespacedevs.com/2.2.0/launcher/10/","flight_proven":true,"serial_number":"B0005","is_placeholder":false,"status":"lost","details":"","launcher_config":{"id":169,"url":"https://lldev.thespacedevs.com/2.2.0/config/launcher/169/","name":"Falcon 9","family":"Falcon","full_name":"Falcon 9 v1.0","variant":"v1.0"},"image_url":"https://spacelaunchnow-prod-east.nyc3.digitaloceanspaces.com/media/launcher_core_images/10_image_20191115082622.jpeg","flights":1,"last_launch_date":"2012-05-22T07:44:38Z","first_launch_date":"2012-05-22T07:44:38Z"},{"id":11,"url":"https://lldev.thespacedevs.com/2.2.0/launcher/11/","flight_proven":true,"serial_number":"B0006","is_placeholder":false,"status":"lost","details":"Suffered engine out at T+1:19 but primary mission successful","launcher_config":{"id":169,"url":"https://lldev.thespacedevs.com/2.2.0/config/launcher/169/","name":"Falcon 9","family":"Falcon","full_name":"Falcon 9 v1.0","variant":"v1.0"},"image_url":"https://spacelaunchnow-prod-east.nyc3.digitaloceanspaces.com/media/launcher_core_images/11_image_20191115082657.jpeg","flights":1,"last_launch_date":"2012-10-08T00:35:07Z","first_launch_date":"2012-10-08T00:35:07Z"},{"id":12,"url":"https://lldev.thespacedevs.com/2.2.0/launcher/12/","flight_proven":true,"serial_number":"B0007","is_placeholder":false,"status":"lost","details":"","launcher_config":{"id":169,"url":"https://lldev.thespacedevs.com/2.2.0/config/launcher/169/","name":"Falcon 9","family":"Falcon","full_name":"Falcon 9 v1.0","variant":"v1.0"},"image_url":"https://spacelaunchnow-prod-east.nyc3.digitaloceanspaces.com/media/launcher_core_images/12_image_20191115082745.jpeg","flights":1,"last_launch_date":"2013-03-01T15:10:13Z","first_launch_date":"2013-03-01T15:10:13Z"},{"id":13,"url":"https://lldev.thespacedevs.com/2.2.0/launcher/13/","flight_proven":true,"serial_number":"B1003","is_placeholder":false,"status":"lost","details":"First flight of Falcon 9 v1.1 upgrade, first Spacex flight from Vandenberg","launcher_config":{"id":14,"url":"https://lldev.thespacedevs.com/2.2.0/config/launcher/14/","name":"Falcon 9","family":"Falcon","full_name":"Falcon 9 v1.1","variant":"v1.1"},"image_url":"https://spacelaunchnow-prod-east.nyc3.digitaloceanspaces.com/media/launcher_core_images/13_image_20191115082823.jpg","flights":1,"last_launch_date":"2013-09-29T16:00:00Z","first_launch_date":"2013-09-29T16:00:00Z"},{"id":14,"url":"https://lldev.thespacedevs.com/2.2.0/launcher/14/","flight_proven":true,"serial_number":"B1004","is_placeholder":false,"status":"lost","details":"","launcher_config":{"id":14,"url":"https://lldev.thespacedevs.com/2.2.0/config/launcher/14/","name":"Falcon 9","family":"Falcon","full_name":"Falcon 9 v1.1","variant":"v1.1"},"image_url":"https://spacelaunchnow-prod-east.nyc3.digitaloceanspaces.com/media/launcher_core_images/14_image_20191115082913.jpeg","flights":1,"last_launch_date":"2013-12-03T21:41:00Z","first_launch_date":"2013-12-03T21:41:00Z"},{"id":15,"url":"https://lldev.thespacedevs.com/2.2.0/launcher/15/","flight_proven":true,"serial_number":"B1005","is_placeholder":false,"status":"lost","details":"","launcher_config":{"id":14,"url":"https://lldev.thespacedevs.com/2.2.0/config/launcher/14/","name":"Falcon 9","family":"Falcon","full_name":"Falcon 9 v1.1","variant":"v1.1"},"image_url":"https://spacelaunchnow-prod-east.nyc3.digitaloceanspaces.com/media/launcher_core_images/15_image_20190226091005.jpg","flights":1,"last_launch_date":"2014-01-06T22:06:00Z","first_launch_date":"2014-01-06T22:06:00Z"},{"id":16,"url":"https://lldev.thespacedevs.com/2.2.0/launcher/16/","flight_proven":true,"serial_number":"B1006","is_placeholder":false,"status":"lost","details":"Broke up after sucessful water landing","launcher_config":{"id":14,"url":"https://lldev.thespacedevs.com/2.2.0/config/launcher/14/","name":"Falcon 9","family":"Falcon","full_name":"Falcon 9 v1.1","variant":"v1.1"},"image_url":"https://spacelaunchnow-prod-east.nyc3.digitaloceanspaces.com/media/launcher_core_images/16_image_20190226091044.jpeg","flights":1,"last_launch_date":"2014-04-18T19:25:22Z","first_launch_date":"2014-04-18T19:25:22Z"},{"id":17,"url":"https://lldev.thespacedevs.com/2.2.0/launcher/17/","flight_proven":true,"serial_number":"B1007","is_placeholder":false,"status":"lost","details":"Broke up after sucessful water landing","launcher_config":{"id":14,"url":"https://lldev.thespacedevs.com/2.2.0/config/launcher/14/","name":"Falcon 9","family":"Falcon","full_name":"Falcon 9 v1.1","variant":"v1.1"},"image_url":"https://spacelaunchnow-prod-east.nyc3.digitaloceanspaces.com/media/launcher_core_images/17_image_20190226091117.jpg","flights":1,"last_launch_date":"2014-07-14T15:15:00Z","first_launch_date":"2014-07-14T15:15:00Z"},{"id":18,"url":"https://lldev.thespacedevs.com/2.2.0/launcher/18/","flight_proven":true,"serial_number":"B1008","is_placeholder":false,"status":"lost","details":"","launcher_config":{"id":14,"url":"https://lldev.thespacedevs.com/2.2.0/config/launcher/14/","name":"Falcon 9","family":"Falcon","full_name":"Falcon 9 v1.1","variant":"v1.1"},"image_url":"https://spacelaunchnow-prod-east.nyc3.digitaloceanspaces.com/media/launcher_core_images/18_image_20190226091204.jpg","flights":1,"last_launch_date":"2014-08-05T08:00:00Z","first_launch_date":"2014-08-05T08:00:00Z"},{"id":19,"url":"https://lldev.thespacedevs.com/2.2.0/launcher/19/","flight_proven":true,"serial_number":"B1011","is_placeholder":false,"status":"lost","details":"","launcher_config":{"id":14,"url":"https://lldev.thespacedevs.com/2.2.0/config/launcher/14/","name":"Falcon 9","family":"Falcon","full_name":"Falcon 9 v1.1","variant":"v1.1"},"image_url":"https://spacelaunchnow-prod-east.nyc3.digitaloceanspaces.com/media/launcher_core_images/19_image_20190226091240.jpg","flights":1,"last_launch_date":"2014-09-07T05:00:00Z","first_launch_date":"2014-09-07T05:00:00Z"},{"id":20,"url":"https://lldev.thespacedevs.com/2.2.0/launcher/20/","flight_proven":true,"serial_number":"B1010","is_placeholder":false,"status":"lost","details":"Broke up after sucessful water landing","launcher_config":{"id":14,"url":"https://lldev.thespacedevs.com/2.2.0/config/launcher/14/","name":"Falcon 9","family":"Falcon","full_name":"Falcon 9 v1.1","variant":"v1.1"},"image_url":"https://spacelaunchnow-prod-east.nyc3.digitaloceanspaces.com/media/launcher_core_images/20_image_20190226091314.jpg","flights":1,"last_launch_date":"2014-09-21T05:52:03Z","first_launch_date":"2014-09-21T05:52:03Z"}]}
